<svg xmlns="http://www.w3.org/2000/svg" viewBox="0 0 51 72">
  <path fill="#F3552F" d="M2.499.5H46.3q.07 0 .14.005.071.005.14.015.07.01.14.024.068.015.136.035.067.02.133.044.067.024.13.053.065.029.127.062t.121.07q.06.038.117.08.056.042.11.087.054.046.104.095.05.05.097.102.047.053.09.109.043.055.082.114.039.059.073.12.035.061.065.125.03.063.056.129.026.066.047.133.02.067.037.135.016.069.028.138.011.07.018.14.006.07.008.14.001.07-.002.141-.004.07-.012.14t-.022.14q-.013.069-.03.137-.019.068-.042.134-.023.067-.05.132-.028.065-.06.127-.032.063-.068.123-.036.06-.076.118-.041.058-.085.113l-9.328 11.48q-.054.066-.102.136-.047.07-.09.145-.041.074-.076.152-.036.078-.064.158-.029.08-.05.163-.022.083-.036.167-.015.084-.022.169-.007.085-.007.17t.007.17q.007.085.022.17.014.083.036.166.021.082.05.163.028.08.064.158.035.077.077.152.041.074.09.145.047.07.101.137l9.328 11.48q.044.054.085.112.04.057.076.118.037.06.068.123.032.063.06.127.027.065.05.132.023.066.041.134.018.068.031.138.014.069.022.139.008.07.012.14.003.07.002.14-.002.07-.008.141-.007.07-.018.14-.012.07-.028.138t-.037.135q-.021.068-.047.133-.026.066-.056.13-.03.063-.065.124-.034.061-.073.12-.04.059-.082.114-.043.056-.09.109t-.097.102q-.05.05-.104.095-.053.045-.11.087-.057.042-.117.08-.059.037-.121.07-.062.033-.126.062-.064.03-.13.053-.067.025-.134.044-.068.02-.137.035-.069.014-.138.024-.07.01-.14.015-.07.005-.14.005H2.498q-.098 0-.196-.01t-.194-.028q-.096-.02-.19-.048-.094-.029-.185-.066-.09-.038-.177-.084-.087-.046-.169-.1-.081-.056-.157-.118-.076-.062-.146-.131-.069-.07-.131-.146-.063-.076-.117-.157-.055-.082-.101-.169-.046-.086-.084-.177-.037-.09-.066-.185-.028-.094-.048-.19-.019-.096-.028-.194Q.5 30.599.5 30.5V2.499q0-.098.01-.196t.028-.194q.02-.096.048-.19.029-.094.066-.185.038-.09.084-.177.046-.087.1-.169.055-.081.118-.157.062-.076.131-.146.07-.069.146-.131.076-.063.157-.117.082-.055.169-.101.086-.046.177-.084.09-.037.185-.066.094-.028.19-.048.096-.019.194-.028Q2.401.5 2.5.5z"/>
  <path fill="#0020FF" d="M1.999.5h.002q.074 0 .147.007t.145.022q.073.014.143.036.07.02.139.05.068.027.133.062t.126.076q.061.04.118.087.057.047.109.099.052.052.099.109.046.057.087.118.041.061.076.126.035.065.063.133.028.068.05.139.02.07.035.143.015.072.022.145.007.073.007.147v68.002q0 .074-.007.147t-.022.145q-.014.073-.036.143-.02.07-.05.139-.027.068-.062.133t-.076.126q-.04.061-.087.118-.047.057-.1.109-.051.052-.108.099-.057.047-.118.087-.061.041-.126.076-.065.035-.133.063-.068.028-.139.05-.07.02-.143.035-.072.015-.145.022-.073.007-.147.007h-.002q-.074 0-.147-.007t-.145-.022q-.073-.014-.143-.036-.07-.02-.139-.05-.068-.027-.133-.062t-.126-.076q-.061-.04-.118-.087-.057-.047-.109-.1-.052-.051-.099-.108-.046-.057-.087-.118-.041-.061-.076-.126-.035-.065-.063-.133-.028-.068-.05-.139-.02-.07-.035-.143-.015-.072-.022-.145Q.5 70.075.5 70V1.999q0-.074.007-.147t.022-.145q.014-.073.036-.143.02-.07.05-.139.027-.068.062-.133t.076-.126q.04-.061.087-.118Q.887.991.94.939.991.887 1.048.84q.057-.046.118-.087.061-.041.126-.076.065-.035.133-.063.068-.028.139-.05.07-.02.143-.035.072-.015.145-.022Q1.925.5 2 .5z"/>
</svg>
