<svg xmlns="http://www.w3.org/2000/svg" viewBox="0 0 75 105">
  <path fill="#00139B" d="M59.944 31.479l-13-7.599.217 52.32 13 7.598-.217-52.32z"/>
  <path fill="#687BFF" d="M73.81 23.446l-12.999-7.598-13.866 8.032 13 7.599 13.866-8.033z"/>
  <path fill="#0020FF" d="M59.944 31.479l.217 52.32 13.866-8.033-.216-52.32-13.867 8.033z"/>
  <path fill="#00139B" d="M42.396 56.661l-13-7.598.217 37.34 13 7.599-.217-37.34z"/>
  <path fill="#687BFF" d="M56.262 48.629l-13-7.598-13.866 8.032 13 7.598 13.866-8.032z"/>
  <path fill="#324CFF" d="M42.396 56.661l.216 37.34L56.48 85.97l-.217-37.34-13.866 8.032z"/>
  <g>
    <path fill="#00139B" d="M24.845 84.45l-13-7.599v19.756l13 7.598V84.449z"/>
    <path fill="#687BFF" d="M38.711 76.417l-13-7.598-13.866 8.032 13 7.598 13.866-8.032z"/>
    <path fill="#0020FF" d="M24.845 84.45v19.755l13.866-8.033V76.417l-13.866 8.032z"/>
  </g>
  <g>
    <path fill="#FCCF01" d="M49.11 12.591l-3.9-2.388.65 5.645 3.9 2.17-.65-5.427z"/>
    <path fill="#DCB501" d="M46.294 11.072l-3.9-2.388-11.05 22.36 3.9 2.388 11.05-22.36z"/>
    <path fill="#DCB501" d="M40.228 10.855l-3.9-2.388.433 4.342 3.9 2.17-.433-4.124z"/>
    <path fill="#FCCF01" d="M52.144 2.17L48.244 0 36.328 8.467l3.9 2.388L52.144 2.17z"/>
    <path fill="#DCB501" d="M13.361 52.32l-3.9-2.171-9.1 17.584 3.9 2.388 9.1-17.801z"/>
    <path fill="#FCCF01" d="M35.244 33.432l-3.9-2.388L9.461 50.15l3.9 2.17 21.883-18.887z"/>
    <path fill="#FFE158" d="M52.144 2.17l-11.916 8.685.433 4.124 5.633-3.907-11.05 22.36L13.361 52.32l-9.1 17.801 3.034 1.086 8.233-16.065 22.1-19.104L49.11 12.59l.65 5.428 3.9-2.822L52.144 2.17z"/>
  </g>
</svg>
