<svg xmlns="http://www.w3.org/2000/svg" viewBox="0 0 41 41">
  <path fill="#F3552F" d="M20.5 40.5c11.0457 0 20-8.9543 20-20s-8.9543-20-20-20-20 8.9543-20 20 8.9543 20 20 20z"/>
  <path fill="#FFF" fill-rule="evenodd" d="M29.38891 20.5c0-1.76699-.0193-2.98996-.0579-3.66898-.0772-1.60495-.5555-2.84722-1.4352-3.72685-.8796-.879635-2.1219-1.358029-3.7268-1.4351847-.679-.0385864-1.902-.0578753-3.66901-.0578753-1.76699 0-2.98997.0192889-3.66898.0578753-1.60495.0771557-2.84722.5555497-3.72685 1.4351847-.879639.87963-1.358029 2.1219-1.4351896 3.72685-.0385805.67902-.0578704 1.90199-.0578704 3.66898 0 1.76701.0192899 2.99001.0578704 3.66901.0771606 1.6049.5555506 2.8472 1.4351896 3.7268.87963.8797 2.1219 1.358 3.72685 1.4352.67901.0386 1.90199.0579 3.66898.0579 1.76701 0 2.99001-.0193 3.66901-.0579 1.6049-.0772 2.8472-.5555 3.7268-1.4352.8797-.8796 1.358-2.1219 1.4352-3.7268.0386-.679.0579-1.902.0579-3.66901zm-8.00928-7.29166h-.87964c-.05401 0-.34914-.00194-.88541-.00579-.53627-.00387-.94328-.00387-1.22106 0-.27778.00385-.65008.01543-1.1169.03472s-.8642.05787-1.19213.11574c-.32793.05787-.60378.12924-.82755.21412-.3858.15432-.7253.37808-1.01851.6713-.29322.29321-.51698.63271-.6713 1.01851-.08488.22377-.15625.49961-.21412.82755-.05787.32794-.09645.7253-.11574 1.19213-.01929.46683-.03087.83912-.03472 1.1169-.00386.27778-.00386.68479 0 1.22106.00385.53627.00578.83141.00578.88542 0 .05402-.00193.34915-.00578.88542-.00386.53629-.00386.94329 0 1.22109.00385.2777.01543.65.03472 1.1169.01929.4668.05787.8642.11574 1.1921.05787.3279.12924.6038.21412.8275.15432.3858.37808.7254.6713 1.0186.29321.2932.63271.5169 1.01851.6713.22377.0848.49962.1562.82755.2141.32793.0579.72531.0964 1.19213.1157.46682.0193.83912.0309 1.1169.0347.27778.0039.68479.0039 1.22106 0 .53627-.0038.8314-.0057.88541-.0057.05402 0 .34916.0019.88543.0057.53629.0039.94329.0039 1.22109 0 .2777-.0038.65-.0154 1.1169-.0347.4668-.0193.8642-.0578 1.1921-.1157.3279-.0579.6038-.1293.8275-.2141.3858-.1544.7253-.3781 1.0186-.6713.2932-.2932.5169-.6328.6713-1.0186.0848-.2237.1562-.4996.2141-.8275.0579-.3279.0964-.7253.1157-1.1921.0193-.4669.0309-.8392.0347-1.1169.0039-.2778.0039-.6848 0-1.22109-.0038-.53627-.0058-.8314-.0058-.88542 0-.05401.002-.34915.0058-.88542.0039-.53627.0039-.94328 0-1.22106-.0038-.27778-.0154-.65007-.0347-1.1169-.0193-.46683-.0578-.86419-.1157-1.19213-.0579-.32794-.1293-.60378-.2141-.82755-.1544-.3858-.3781-.7253-.6713-1.01851-.2933-.29322-.6328-.51698-1.0186-.6713-.2237-.08488-.4996-.15625-.8275-.21412-.3279-.05787-.7253-.09645-1.1921-.11574-.4669-.01929-.8392-.03087-1.1169-.03472-.2778-.00387-.6868-.00193-1.22688.00579zm4.93058 2.54629c0-.29321-.1042-.54398-.3125-.75231-.2084-.20834-.4591-.31251-.7523-.31251-.2933 0-.544.10417-.7524.31251-.2083.20833-.3125.4591-.3125.75231s.1042.54398.3125.75231c.2084.20834.4591.31251.7524.31251.2932 0 .5439-.10417.7523-.31251.2083-.20833.3125-.4591.3125-.75231zm-2.581 1.5162c.8873.88735 1.331 1.96373 1.331 3.22917 0 1.26541-.4437 2.34181-1.331 3.22921-.8874.8873-1.9638 1.331-3.22922 1.331-1.26543 0-2.34181-.4437-3.22916-1.331-.88735-.8874-1.33102-1.9638-1.33102-3.22921 0-1.26544.44367-2.34182 1.33102-3.22917.88735-.88734 1.96373-1.33102 3.22916-1.33102 1.26542 0 2.34182.44368 3.22922 1.33102zM23.46301 20.5c0 .8179-.2894 1.51621-.8681 2.09491s-1.277.8681-2.09492.8681c-.8179 0-1.51619-.2894-2.0949-.8681-.57871-.5787-.86805-1.27701-.86805-2.09491 0-.81791.28934-1.51621.86805-2.09491.57871-.57871 1.277-.86806 2.0949-.86806.81792 0 1.51622.28935 2.09492.86806.5787.5787.8681 1.277.8681 2.09491z"/>
</svg>
