<svg xmlns="http://www.w3.org/2000/svg" viewBox="0 0 18 18">
  <path fill="#00107E" fill-rule="evenodd" d="M4.90735 0h8.16615c.6773 0 1.3163.127796 1.9169.383387.5879.255591 1.1054.607022 1.5527 1.054313.4473.44729.7988.97124 1.0543 1.57189.2556.58786.3834 1.22044.3834 1.89776v8.18535c0 .6645-.1278 1.2971-.3834 1.8977-.2555.6007-.607 1.1214-1.0543 1.5623-.4473.4409-.9648.7892-1.5527 1.0447-.6006.2684-1.2396.4026-1.9169.4026H4.90735c-.67732 0-1.31629-.1342-1.91693-.4026-.58787-.2555-1.10543-.6038-1.55272-1.0447-.447287-.4409-.798721-.9616-1.054313-1.5623C.127794 14.3898 0 13.7572 0 13.0927V4.90735c0-.67732.127794-1.3099.383387-1.89776.255592-.60065.607026-1.1246 1.054313-1.57189.44729-.447291.96485-.798722 1.55272-1.054313C3.59106.127796 4.23003 0 4.90735 0zM16.3514 13.0926c0 .8946-.3194 1.6614-.9584 2.3004-.639.6389-1.4122.9584-2.3195.9584H4.90735c-.90735 0-1.68051-.3195-2.31949-.9584-.63898-.639-.95847-1.4058-.95847-2.3004V4.90735c0-.89458.31949-1.66453.95847-2.30991C3.22684 1.95207 4 1.62939 4.90735 1.62939h8.16615c.9073 0 1.6805.32268 2.3195.96805.639.64538.9584 1.41533.9584 2.30991v8.18525zm-3.623-8.91366c.0383-.08945.1022-.17252.1917-.24919.1661-.16614.3578-.24921.5751-.24921.2172 0 .4089.08307.5751.24921.0766.07667.1341.15974.1725.24919.0383.08946.0575.19809.0575.32588 0 .07668-.0192.16933-.0575.27795-.0384.10864-.0959.20767-.1725.29713-.0895.07668-.179.13419-.2684.17252-.0895.03835-.1917.05752-.3067.05752-.0895 0-.1885-.01917-.2971-.05752-.1087-.03833-.2013-.09584-.278-.17252-.0895-.08946-.1534-.17891-.1917-.26837-.0383-.08946-.0575-.19169-.0575-.30671 0-.12779.0192-.23642.0575-.32588zm-3.69972.67091c.20447 0 .40895.01917.61342.05751.9074.12779 1.6773.50798 2.3099 1.14057.6326.63259 1.0064 1.39616 1.1214 2.29074.0895.53674.0735 1.0639-.0479 1.58147-.1214.51756-.3483.99996-.6805 1.44726-.3323.4473-.7317.8115-1.1981 1.0927-.4665.2811-.9681.46-1.5048.5367-.07668.0511-.16933.0799-.27795.0863-.10863.0064-.20767.0096-.29713.0096-.44729 0-.87539-.0767-1.28434-.2301-.40895-.1533-.79872-.3514-1.16933-.5942-.44729-.3323-.8115-.7316-1.09266-1.1981-.28115-.4665-.46006-.9681-.53674-1.50479-.07667-.54953-.04473-1.08626.09585-1.61023.14058-.52396.36422-.9968.67093-1.41853.30671-.42172.69009-.77955 1.15016-1.07348.46006-.29393.96485-.47923 1.51437-.55591.20447-.03834.40895-.05751.61342-.05751zm2.01302 5.53995c-.2045.2428-.4473.4568-.7284.6421-.2812.1854-.58789.2972-.92016.3355-.65176.0767-1.25559-.0799-1.8115-.4696-.55592-.3898-.8786-.91697-.96805-1.58151-.11502-.65176.03514-1.25559.45048-1.8115.41533-.55591.94887-.87859 1.60064-.96805h.65175c.53675.08946.99044.31949 1.36104.69009.3706.37061.6006.82428.6901 1.36103.0767.33227.0798.65495.0096.96805-.0703.3131-.1821.59109-.3355.83389z"/>
</svg>
