<svg xmlns="http://www.w3.org/2000/svg" viewBox="0 0 19 18">
  <path fill="#00107E" fill-rule="evenodd" d="M4.53679 2.09672c.00817.59674-.19823 1.09537-.61921 1.49592-.42099.40055-.9748.60081-1.66145.60081h-.02452c-.67031 0-1.20981-.20026-1.618531-.60081C.204358 3.19209 0 2.69346 0 2.09672 0 1.49182.210488.991145.631472.594684 1.05245.198222 1.60218 0 2.28065 0c.67848 0 1.22207.198222 1.63079.594684.40873.396461.61717.897136.62535 1.502036zM18.8338 18v-6.9646c0-1.79018-.4251-3.14916-1.2752-4.07696-.8501-.9278-1.9741-1.39169-3.3719-1.39169-.515 0-.983.06336-1.404.19006-.421.12671-.7766.30449-1.0668.53338-.2901.22888-.5211.44141-.6927.6376-.1631.18639-.3225.40228-.4782.6477V5.84877H6.5109l.01226.58856c.00818.39237.01226 1.60216.01226 3.62947 0 2.0272-.00817 4.6716-.02452 7.9332h4.0341v-6.7807c0-.4169.0449-.7479.1348-.9931.1717-.41694.4312-.76639.7786-1.04841.3475-.28202.7787-.42302 1.2936-.42302.703 0 1.2201.24318 1.5511.72956.3311.48638.4966 1.15867.4966 2.01707V18h4.0341zM4.27929 18V5.84877H.23297V18h4.04632z"/>
</svg>
