<svg xmlns="http://www.w3.org/2000/svg" viewBox="0 0 89 100">
  <path fill="#121630" fill-rule="evenodd" d="M81.856 67.365c.196.373.456.735.539 1.164 1.46 2.037 2.522 4.328 3.858 6.443l2.636 4.74-2.98 3.856v.036l-.112.11C76.391 94.428 66.259 97.07 66.259 97.07a53.923 53.923 0 01-7.651 2.086c-1.898.282-3.79.662-5.709.699-3.16.274-6.338.128-9.49-.18-3.703-.5-7.362-1.343-10.887-2.598-9.96-3.247-19.553-13.366-19.553-13.366-1.613-1.545-2.889-3.393-4.201-5.194l.014-.091C3.355 70.659.387 61.225.029 51.743c-.34-9.974 2.335-20.032 7.618-28.46 1.79-2.852 3.872-5.51 6.16-7.969 4.115-4.238 8.891-7.876 14.239-10.361l-.007-.074c2.784-1.262 5.622-2.455 8.608-3.144l.004-.12C41.488.456 46.445-.138 51.417.027c2.415.209 4.841.359 7.22.875 4.646.948 9.31 2.404 13.41 4.795l.054.289.21-.107c2.278.857 4.205 2.467 6.255 3.767l-.004.131c2.629 1.765 4.921 4.005 7.065 6.332l.024.026-3.677 3.009a44.856 44.856 0 00-3.936-3.796c-1.93-1.625-3.999-3.07-6.146-4.385-4.303-2.503-8.996-4.366-13.884-5.285-3.876-.834-7.86-.955-11.808-.871-2.994.469-6.031.776-8.938 1.691-3.138.86-6.136 2.16-9.017 3.66-4.766 2.614-8.992 6.134-12.633 10.182-2.112 2.723-4.15 5.523-5.752 8.594-4.205 8.184-5.96 17.67-4.74 26.826.62 5.44 2.374 10.708 4.851 15.565.73 1.23 1.355 2.525 2.19 3.69.08.014.236.04.311.05 1.356-2.192 2.488-4.53 3.956-6.653 1.692-3.346 3.753-6.548 5.593-9.835 1.978-3.39 3.88-6.822 5.926-10.168 1.374-2.617 2.972-5.117 4.397-7.711 1.666 2.415 3.084 4.996 4.602 7.503 3.356 5.479 6.642 10.998 9.968 16.492.843 1.354 1.577 2.782 2.553 4.044.318-.48.636-.962.962-1.434l-.047-.118c2.748-4.326 5.195-8.85 8.02-13.128 1.684-3.192 3.709-6.248 5.542-9.373.788-1.337 1.594-2.665 2.375-4.005 1.92 3.082 3.72 6.248 5.485 9.421 3.424 5.71 6.663 11.533 10.051 17.265zM58.681 84.468a257.465 257.465 0 015.312 8.695c12.192-3.179 17.265-11.195 18.89-14.522-.3-.52-.598-1.04-.893-1.563-3.478-5.973-6.909-11.98-10.394-17.949l.021-.095c-1.863-2.872-3.398-5.948-5.248-8.826l-.089.04-14 23.536c.293.408.588.819.858 1.248.347.564.673 1.146 1.009 1.724.13.224.264.447.401.67 1.345 2.36 2.922 4.626 4.133 7.042zm-.293 9.838c-2.346.47-4.729.722-7.115.864-2.784.117-5.565-.062-8.323-.42a37.218 37.218 0 01-3.178-.59c2.36-4.074 4.827-8.085 7.238-12.13.035-.072.076-.147.118-.224.177-.32.372-.675.168-1.02-.723-1.482-1.674-2.836-2.488-4.267-3.26 5.376-6.523 10.755-9.717 16.171-5.23-1.931-13.736-5.967-19.648-13.255.443-.766.879-1.537 1.283-2.323 2.502-4.1 4.816-8.323 7.275-12.452l-.044-.055c2.036-3.305 3.927-6.705 5.868-10.065.875-1.406 1.63-2.884 2.502-4.286.449.102.637.538.868.89 1.041 1.738 2.017 3.524 3.182 5.182l-.033.132c3.623 5.83 6.993 11.833 10.71 17.6.38 1.114 1.091 2.08 1.724 3.06 3.236 5.253 6.295 10.615 9.596 15.82l-.015.11c.22.358.449.713.673 1.072l-.644.186z"/>
</svg>
